<svg xmlns="http://www.w3.org/2000/svg" xmlns:xlink="http://www.w3.org/1999/xlink" fill-rule="evenodd" stroke-linejoin="round" clip-rule="evenodd" style="cursor:pointer" version="1.1" viewBox="-100 -100 750 750">
    <path id="background" d="M322.414,85.345l-18.966,0l-4.676,-10.345l-73.315,0l-1.724,0l-34.078,60.345l13.793,25.862l-72.414,126.724l-43.103,25l-48.276,81.035l36.207,62.068l13.793,1.725l10.345,17.241l370,0l40.345,-67.241l-187.931,-322.414Z" style="fill:#000c58"/>
    <g>
        <g>
            <path id="blue_long" fill="#2b85fe" d="m302.126 99.718 25.751 42.918-111.588 183.691 65.236 116.738h-178.54z" class="blue_long"/>
            <animateTransform fill="freeze" attributeName="transform" attributeType="XML" begin="maskAffinity.mouseover" dur="0.2s" from="0 0" repeatCount="1" to="-65 -70" type="translate"/>
            <animateTransform fill="freeze" attributeName="transform" attributeType="XML" begin="maskAffinity.mouseout" dur="1s" from="-65 -70" repeatCount="1" to="0 0" type="translate"/>
        </g>
        <g>
            <path id="light_blue" fill="#00d5f2" d="m304.106 328.504h132.188l-104.721-180.258-66.952 111.588z" class="light_blue"/>
            <animateTransform fill="freeze" attributeName="transform" attributeType="XML" begin="maskAffinity.mouseover" dur="0.2s" from="0 0" repeatCount="1" to="-35 -50" type="translate"/>
            <animateTransform fill="freeze" attributeName="transform" attributeType="XML" begin="maskAffinity.mouseout" dur="1s" from="-35 -50" repeatCount="1" to="0 0" type="translate"/>
        </g>
        <g>
            <path id="blue_bottom" fill="#2b85fe" d="m227.79 334.227h211.158l42.919 73.82h-212.876z" class="blue_bottom"/>
            <animateTransform fill="freeze" attributeName="transform" attributeType="XML" begin="maskAffinity.mouseover" dur="0.2s" from="0 0" repeatCount="1" to="-5 -30" type="translate"/>
            <animateTransform fill="freeze" attributeName="transform" attributeType="XML" begin="maskAffinity.mouseout" dur="1s" from="-5 -30" repeatCount="1" to="0 0" type="translate"/>
        </g>
        <animateTransform fill="freeze" attributeName="transform" attributeType="XML" begin="maskAffinity.mouseover" dur="0.2s" from="1 1" repeatCount="1" to="1.2 1.2" type="scale"/>
        <animateTransform fill="freeze" attributeName="transform" attributeType="XML" begin="maskAffinity.mouseout" dur="1s" from="1.2 1.2" repeatCount="1" to="1 1" type="scale"/>
    </g>
    <path id="green_middle" fill="#1bffb9" d="m260.44 267.706 34.835 60.798-51.49-1.035c-10.886-4.558-11.178-10.066-8.203-19.054z" class="green_middle"/>
    <a target="_parent">
        <rect id="maskAffinity" width="550" height="550" x="0" y="0" opacity="0"/>
    </a>
</svg>
